-syslibroot
/Library/Developer/CommandLineTools/SDKs/MacOSX.sdk
-arch
x86_64
-macosx_version_min
10.8.0
-L/Library/Developer/CommandLineTools/SDKs/MacOSX.sdk/usr/lib/
-L/Users/giulianocolla/Applications/lazarus_main/lcl/units/x86_64-darwin/cocoa/
-L/Users/giulianocolla/Applications/lazarus_main/lcl/units/x86_64-darwin/
-L/Users/giulianocolla/Applications/lazarus_main/components/freetype/lib/x86_64-darwin/
-L/Users/giulianocolla/Applications/lazarus_main/components/lazutils/lib/x86_64-darwin/
-L/Users/giulianocolla/Applications/lazarus_main/packager/units/x86_64-darwin/
-L./
-L/usr/local/lib/fpc/3.2.2/units/x86_64-darwin/httpd22/
-L/usr/local/lib/fpc/3.2.2/units/x86_64-darwin/rtl/
-L/usr/local/lib/fpc/3.2.2/units/x86_64-darwin/opengl/
-L/usr/local/lib/fpc/3.2.2/units/x86_64-darwin/fcl-base/
-L/usr/local/lib/fpc/3.2.2/units/x86_64-darwin/gnutls/
-L/usr/local/lib/fpc/3.2.2/units/x86_64-darwin/pasjpeg/
-L/usr/local/lib/fpc/3.2.2/units/x86_64-darwin/libffi/
-L/usr/local/lib/fpc/3.2.2/units/x86_64-darwin/bzip2/
-L/usr/local/lib/fpc/3.2.2/units/x86_64-darwin/fcl-async/
-L/usr/local/lib/fpc/3.2.2/units/x86_64-darwin/rtl-unicode/
-L/usr/local/lib/fpc/3.2.2/units/x86_64-darwin/fcl-process/
-L/usr/local/lib/fpc/3.2.2/units/x86_64-darwin/fpgtk/
-L/usr/local/lib/fpc/3.2.2/units/x86_64-darwin/fcl-js/
-L/usr/local/lib/fpc/3.2.2/units/x86_64-darwin/imagemagick/
-L/usr/local/lib/fpc/3.2.2/units/x86_64-darwin/tplylib/
-L/usr/local/lib/fpc/3.2.2/units/x86_64-darwin/openssl/
-L/usr/local/lib/fpc/3.2.2/units/x86_64-darwin/fftw/
-L/usr/local/lib/fpc/3.2.2/units/x86_64-darwin/regexpr/
-L/usr/local/lib/fpc/3.2.2/units/x86_64-darwin/gnome1/
-L/usr/local/lib/fpc/3.2.2/units/x86_64-darwin/opengles/
-L/usr/local/lib/fpc/3.2.2/units/x86_64-darwin/fcl-image/
-L/usr/local/lib/fpc/3.2.2/units/x86_64-darwin/fppkg/
-L/usr/local/lib/fpc/3.2.2/units/x86_64-darwin/pastojs/
-L/usr/local/lib/fpc/3.2.2/units/x86_64-darwin/fcl-registry/
-L/usr/local/lib/fpc/3.2.2/units/x86_64-darwin/hermes/
-L/usr/local/lib/fpc/3.2.2/units/x86_64-darwin/symbolic/
-L/usr/local/lib/fpc/3.2.2/units/x86_64-darwin/xforms/
-L/usr/local/lib/fpc/3.2.2/units/x86_64-darwin/fpmkunit/
-L/usr/local/lib/fpc/3.2.2/units/x86_64-darwin/httpd24/
-L/usr/local/lib/fpc/3.2.2/units/x86_64-darwin/googleapi/
-L/usr/local/lib/fpc/3.2.2/units/x86_64-darwin/x11/
-L/usr/local/lib/fpc/3.2.2/units/x86_64-darwin/odata/
-L/usr/local/lib/fpc/3.2.2/units/x86_64-darwin/ibase/
-L/usr/local/lib/fpc/3.2.2/units/x86_64-darwin/aspell/
-L/usr/local/lib/fpc/3.2.2/units/x86_64-darwin/libtar/
-L/usr/local/lib/fpc/3.2.2/units/x86_64-darwin/pthreads/
-L/usr/local/lib/fpc/3.2.2/units/x86_64-darwin/mysql/
-L/usr/local/lib/fpc/3.2.2/units/x86_64-darwin/rtl-extra/
-L/usr/local/lib/fpc/3.2.2/units/x86_64-darwin/vcl-compat/
-L/usr/local/lib/fpc/3.2.2/units/x86_64-darwin/libmicrohttpd/
-L/usr/local/lib/fpc/3.2.2/units/x86_64-darwin/odbc/
-L/usr/local/lib/fpc/3.2.2/units/x86_64-darwin/fpindexer/
-L/usr/local/lib/fpc/3.2.2/units/x86_64-darwin/sdl/
-L/usr/local/lib/fpc/3.2.2/units/x86_64-darwin/fcl-json/
-L/usr/local/lib/fpc/3.2.2/units/x86_64-darwin/fastcgi/
-L/usr/local/lib/fpc/3.2.2/units/x86_64-darwin/numlib/
-L/usr/local/lib/fpc/3.2.2/units/x86_64-darwin/univint/
-L/usr/local/lib/fpc/3.2.2/units/x86_64-darwin/gtk2/
-L/usr/local/lib/fpc/3.2.2/units/x86_64-darwin/postgres/
-L/usr/local/lib/fpc/3.2.2/units/x86_64-darwin/tcl/
-L/usr/local/lib/fpc/3.2.2/units/x86_64-darwin/iconvenc/
-L/usr/local/lib/fpc/3.2.2/units/x86_64-darwin/chm/
-L/usr/local/lib/fpc/3.2.2/units/x86_64-darwin/opencl/
-L/usr/local/lib/fpc/3.2.2/units/x86_64-darwin/rtl-generics/
-L/usr/local/lib/fpc/3.2.2/units/x86_64-darwin/fcl-report/
-L/usr/local/lib/fpc/3.2.2/units/x86_64-darwin/utils-pas2js/
-L/usr/local/lib/fpc/3.2.2/units/x86_64-darwin/zlib/
-L/usr/local/lib/fpc/3.2.2/units/x86_64-darwin/webidl/
-L/usr/local/lib/fpc/3.2.2/units/x86_64-darwin/sqlite/
-L/usr/local/lib/fpc/3.2.2/units/x86_64-darwin/cairo/
-L/usr/local/lib/fpc/3.2.2/units/x86_64-darwin/libcurl/
-L/usr/local/lib/fpc/3.2.2/units/x86_64-darwin/fcl-net/
-L/usr/local/lib/fpc/3.2.2/units/x86_64-darwin/fcl-sdo/
-L/usr/local/lib/fpc/3.2.2/units/x86_64-darwin/cocoaint/
-L/usr/local/lib/fpc/3.2.2/units/x86_64-darwin/rsvg/
-L/usr/local/lib/fpc/3.2.2/units/x86_64-darwin/oracle/
-L/usr/local/lib/fpc/3.2.2/units/x86_64-darwin/paszlib/
-L/usr/local/lib/fpc/3.2.2/units/x86_64-darwin/iosxlocale/
-L/usr/local/lib/fpc/3.2.2/units/x86_64-darwin/fcl-res/
-L/usr/local/lib/fpc/3.2.2/units/x86_64-darwin/imlib/
-L/usr/local/lib/fpc/3.2.2/units/x86_64-darwin/unzip/
-L/usr/local/lib/fpc/3.2.2/units/x86_64-darwin/objcrtl/
-L/usr/local/lib/fpc/3.2.2/units/x86_64-darwin/utmp/
-L/usr/local/lib/fpc/3.2.2/units/x86_64-darwin/fcl-sound/
-L/usr/local/lib/fpc/3.2.2/units/x86_64-darwin/fv/
-L/usr/local/lib/fpc/3.2.2/units/x86_64-darwin/rtl-console/
-L/usr/local/lib/fpc/3.2.2/units/x86_64-darwin/hash/
-L/usr/local/lib/fpc/3.2.2/units/x86_64-darwin/fcl-stl/
-L/usr/local/lib/fpc/3.2.2/units/x86_64-darwin/fcl-passrc/
-L/usr/local/lib/fpc/3.2.2/units/x86_64-darwin/fcl-extra/
-L/usr/local/lib/fpc/3.2.2/units/x86_64-darwin/fcl-fpcunit/
-L/usr/local/lib/fpc/3.2.2/units/x86_64-darwin/bfd/
-L/usr/local/lib/fpc/3.2.2/units/x86_64-darwin/gdbm/
-L/usr/local/lib/fpc/3.2.2/units/x86_64-darwin/fcl-xml/
-L/usr/local/lib/fpc/3.2.2/units/x86_64-darwin/fcl-pdf/
-L/usr/local/lib/fpc/3.2.2/units/x86_64-darwin/ncurses/
-L/usr/local/lib/fpc/3.2.2/units/x86_64-darwin/libpng/
-L/usr/local/lib/fpc/3.2.2/units/x86_64-darwin/libfontconfig/
-L/usr/local/lib/fpc/3.2.2/units/x86_64-darwin/syslog/
-L/usr/local/lib/fpc/3.2.2/units/x86_64-darwin/libmagic/
-L/usr/local/lib/fpc/3.2.2/units/x86_64-darwin/gtk1/
-L/usr/local/lib/fpc/3.2.2/units/x86_64-darwin/fcl-db/
-L/usr/local/lib/fpc/3.2.2/units/x86_64-darwin/libcups/
-L/usr/local/lib/fpc/3.2.2/units/x86_64-darwin/gmp/
-L/usr/local/lib/fpc/3.2.2/units/x86_64-darwin/rtl-objpas/
-L/usr/local/lib/fpc/3.2.2/units/x86_64-darwin/fcl-web/
-L/usr/local/lib/fpc/3.2.2/units/x86_64-darwin/libgd/
-L/usr/local/lib/fpc/3.2.2/units/x86_64-darwin/pcap/
-L/usr/local/lib/fpc/3.2.2/units/x86_64-darwin/
-L/usr/local/bin/
-lc
-liconv
-lc
-lobjc
-lc
-framework
CoreFoundation
-framework
Foundation
-framework
Cocoa
-framework
QuartzCore
-framework
CoreData
-framework
AppKit
