/usr/local/lib/fpc/3.2.2/units/x86_64-darwin/rtl/sysinit.o
/Users/giulianocolla/Applications/Lazarus/crash/lib/x86_64-darwin/crash.o
/Users/giulianocolla/Applications/Lazarus/crash/lib/x86_64-darwin/crash.or
/usr/local/lib/fpc/3.2.2/units/x86_64-darwin/rtl/system.o
/usr/local/lib/fpc/3.2.2/units/x86_64-darwin/rtl/lnfodwrf.o
/usr/local/lib/fpc/3.2.2/units/x86_64-darwin/rtl/exeinfo.o
/usr/local/lib/fpc/3.2.2/units/x86_64-darwin/rtl/strings.o
/usr/local/lib/fpc/3.2.2/units/x86_64-darwin/rtl/fpintres.o
/usr/local/lib/fpc/3.2.2/units/x86_64-darwin/rtl/objpas.o
/usr/local/lib/fpc/3.2.2/units/x86_64-darwin/rtl/cthreads.o
/Users/giulianocolla/Applications/lazarus_main/lcl/units/x86_64-darwin/cocoa/interfaces.o
/Users/giulianocolla/Applications/lazarus_main/lcl/units/x86_64-darwin/forms.o
/Users/giulianocolla/Applications/Lazarus/crash/lib/x86_64-darwin/ucrash.o
/usr/local/lib/fpc/3.2.2/units/x86_64-darwin/rtl/baseunix.o
/usr/local/lib/fpc/3.2.2/units/x86_64-darwin/rtl/unix.o
/usr/local/lib/fpc/3.2.2/units/x86_64-darwin/rtl/unixtype.o
/usr/local/lib/fpc/3.2.2/units/x86_64-darwin/rtl/initc.o
/usr/local/lib/fpc/3.2.2/units/x86_64-darwin/rtl/sysctl.o
/usr/local/lib/fpc/3.2.2/units/x86_64-darwin/rtl/unixutil.o
/usr/local/lib/fpc/3.2.2/units/x86_64-darwin/rtl/ctypes.o
/usr/local/lib/fpc/3.2.2/units/x86_64-darwin/rtl/cwstring.o
/Users/giulianocolla/Applications/lazarus_main/lcl/units/x86_64-darwin/interfacebase.o
/usr/local/lib/fpc/3.2.2/units/x86_64-darwin/rtl/dynlibs.o
/usr/local/lib/fpc/3.2.2/units/x86_64-darwin/rtl/unixcp.o
/usr/local/lib/fpc/3.2.2/units/x86_64-darwin/rtl/dl.o
/usr/local/lib/fpc/3.2.2/units/x86_64-darwin/rtl/types.o
/usr/local/lib/fpc/3.2.2/units/x86_64-darwin/rtl/classes.o
/usr/local/lib/fpc/3.2.2/units/x86_64-darwin/rtl/sysutils.o
/usr/local/lib/fpc/3.2.2/units/x86_64-darwin/rtl/math.o
/usr/local/lib/fpc/3.2.2/units/x86_64-darwin/fcl-image/fpimage.o
/Users/giulianocolla/Applications/lazarus_main/lcl/units/x86_64-darwin/lclproc.o
/Users/giulianocolla/Applications/lazarus_main/lcl/units/x86_64-darwin/lcltype.o
/Users/giulianocolla/Applications/lazarus_main/lcl/units/x86_64-darwin/lmessages.o
/Users/giulianocolla/Applications/lazarus_main/lcl/units/x86_64-darwin/lclplatformdef.o
/Users/giulianocolla/Applications/lazarus_main/lcl/units/x86_64-darwin/intfgraphics.o
/Users/giulianocolla/Applications/lazarus_main/lcl/units/x86_64-darwin/themes.o
/Users/giulianocolla/Applications/lazarus_main/components/lazutils/lib/x86_64-darwin/lazutf8.o
/Users/giulianocolla/Applications/lazarus_main/components/lazutils/lib/x86_64-darwin/integerlist.o
/Users/giulianocolla/Applications/lazarus_main/components/lazutils/lib/x86_64-darwin/lazutilities.o
/Users/giulianocolla/Applications/lazarus_main/components/lazutils/lib/x86_64-darwin/lazloggerbase.o
/Users/giulianocolla/Applications/lazarus_main/components/lazutils/lib/x86_64-darwin/graphtype.o
/Users/giulianocolla/Applications/lazarus_main/components/lazutils/lib/x86_64-darwin/graphmath.o
/usr/local/lib/fpc/3.2.2/units/x86_64-darwin/rtl/errors.o
/usr/local/lib/fpc/3.2.2/units/x86_64-darwin/rtl/sysconst.o
/usr/local/lib/fpc/3.2.2/units/x86_64-darwin/rtl/typinfo.o
/usr/local/lib/fpc/3.2.2/units/x86_64-darwin/rtl/rtlconsts.o
/usr/local/lib/fpc/3.2.2/units/x86_64-darwin/univint/MacOSAll.o
/Users/giulianocolla/Applications/lazarus_main/components/lazutils/lib/x86_64-darwin/laz_avl_tree.o
/Users/giulianocolla/Applications/lazarus_main/components/lazutils/lib/x86_64-darwin/lazfileutils.o
/Users/giulianocolla/Applications/lazarus_main/components/lazutils/lib/x86_64-darwin/lazmethodlist.o
/Users/giulianocolla/Applications/lazarus_main/components/lazutils/lib/x86_64-darwin/laztracer.o
/Users/giulianocolla/Applications/lazarus_main/lcl/units/x86_64-darwin/lclstrconsts.o
/usr/local/lib/fpc/3.2.2/units/x86_64-darwin/rtl/macpas.o
/usr/local/lib/fpc/3.2.2/units/x86_64-darwin/rtl/blockrtl.o
/usr/local/lib/fpc/3.2.2/units/x86_64-darwin/univint/MacTypes.o
/usr/local/lib/fpc/3.2.2/units/x86_64-darwin/univint/CoreAudioTypes.o
/Users/giulianocolla/Applications/lazarus_main/components/lazutils/lib/x86_64-darwin/lazutilsstrconsts.o
/Users/giulianocolla/Applications/lazarus_main/components/lazutils/lib/x86_64-darwin/fpcadds.o
/usr/local/lib/fpc/3.2.2/units/x86_64-darwin/rtl-objpas/strutils.o
/usr/local/lib/fpc/3.2.2/units/x86_64-darwin/fcl-base/gettext.o
/Users/giulianocolla/Applications/lazarus_main/components/lazutils/lib/x86_64-darwin/lazclasses.o
/usr/local/lib/fpc/3.2.2/units/x86_64-darwin/fcl-image/fpreadbmp.o
/usr/local/lib/fpc/3.2.2/units/x86_64-darwin/fcl-image/fpwritebmp.o
/usr/local/lib/fpc/3.2.2/units/x86_64-darwin/fcl-image/bmpcomn.o
/usr/local/lib/fpc/3.2.2/units/x86_64-darwin/fcl-image/fpreadpng.o
/usr/local/lib/fpc/3.2.2/units/x86_64-darwin/fcl-image/fpwritepng.o
/usr/local/lib/fpc/3.2.2/units/x86_64-darwin/fcl-image/fpreadtiff.o
/usr/local/lib/fpc/3.2.2/units/x86_64-darwin/fcl-image/fpwritetiff.o
/usr/local/lib/fpc/3.2.2/units/x86_64-darwin/fcl-image/fptiffcmn.o
/Users/giulianocolla/Applications/lazarus_main/lcl/units/x86_64-darwin/lclversion.o
/Users/giulianocolla/Applications/lazarus_main/lcl/units/x86_64-darwin/icnstypes.o
/usr/local/lib/fpc/3.2.2/units/x86_64-darwin/fcl-image/fpimgcmn.o
/usr/local/lib/fpc/3.2.2/units/x86_64-darwin/fcl-image/pngcomn.o
/usr/local/lib/fpc/3.2.2/units/x86_64-darwin/paszlib/zstream.o
/usr/local/lib/fpc/3.2.2/units/x86_64-darwin/paszlib/zbase.o
/usr/local/lib/fpc/3.2.2/units/x86_64-darwin/paszlib/gzio.o
/usr/local/lib/fpc/3.2.2/units/x86_64-darwin/hash/crc.o
/usr/local/lib/fpc/3.2.2/units/x86_64-darwin/paszlib/zdeflate.o
/usr/local/lib/fpc/3.2.2/units/x86_64-darwin/paszlib/zinflate.o
/usr/local/lib/fpc/3.2.2/units/x86_64-darwin/paszlib/trees.o
/usr/local/lib/fpc/3.2.2/units/x86_64-darwin/paszlib/adler.o
/usr/local/lib/fpc/3.2.2/units/x86_64-darwin/paszlib/infblock.o
/usr/local/lib/fpc/3.2.2/units/x86_64-darwin/paszlib/infutil.o
/usr/local/lib/fpc/3.2.2/units/x86_64-darwin/paszlib/infcodes.o
/usr/local/lib/fpc/3.2.2/units/x86_64-darwin/paszlib/inftrees.o
/usr/local/lib/fpc/3.2.2/units/x86_64-darwin/paszlib/inffast.o
/Users/giulianocolla/Applications/lazarus_main/components/lazutils/lib/x86_64-darwin/lazversion.o
/Users/giulianocolla/Applications/lazarus_main/lcl/units/x86_64-darwin/graphics.o
/Users/giulianocolla/Applications/lazarus_main/lcl/units/x86_64-darwin/lclintf.o
/usr/local/lib/fpc/3.2.2/units/x86_64-darwin/fcl-base/contnrs.o
/usr/local/lib/fpc/3.2.2/units/x86_64-darwin/fcl-image/fpcanvas.o
/usr/local/lib/fpc/3.2.2/units/x86_64-darwin/fcl-image/fpreadpnm.o
/usr/local/lib/fpc/3.2.2/units/x86_64-darwin/fcl-image/fpwritepnm.o
/usr/local/lib/fpc/3.2.2/units/x86_64-darwin/fcl-image/fpreadjpeg.o
/usr/local/lib/fpc/3.2.2/units/x86_64-darwin/fcl-image/fpwritejpeg.o
/usr/local/lib/fpc/3.2.2/units/x86_64-darwin/fcl-image/fpreadgif.o
/Users/giulianocolla/Applications/lazarus_main/lcl/units/x86_64-darwin/lresources.o
/Users/giulianocolla/Applications/lazarus_main/lcl/units/x86_64-darwin/lclrescache.o
/Users/giulianocolla/Applications/lazarus_main/lcl/units/x86_64-darwin/wsreferences.o
/usr/local/lib/fpc/3.2.2/units/x86_64-darwin/fcl-image/clipping.o
/usr/local/lib/fpc/3.2.2/units/x86_64-darwin/pasjpeg/jpeglib.o
/usr/local/lib/fpc/3.2.2/units/x86_64-darwin/pasjpeg/jdapimin.o
/usr/local/lib/fpc/3.2.2/units/x86_64-darwin/pasjpeg/jdatasrc.o
/usr/local/lib/fpc/3.2.2/units/x86_64-darwin/pasjpeg/jdapistd.o
/usr/local/lib/fpc/3.2.2/units/x86_64-darwin/pasjpeg/jmorecfg.o
/usr/local/lib/fpc/3.2.2/units/x86_64-darwin/pasjpeg/jdeferr.o
/usr/local/lib/fpc/3.2.2/units/x86_64-darwin/pasjpeg/jinclude.o
/usr/local/lib/fpc/3.2.2/units/x86_64-darwin/pasjpeg/jerror.o
/usr/local/lib/fpc/3.2.2/units/x86_64-darwin/pasjpeg/jmemmgr.o
/usr/local/lib/fpc/3.2.2/units/x86_64-darwin/pasjpeg/jdmarker.o
/usr/local/lib/fpc/3.2.2/units/x86_64-darwin/pasjpeg/jdinput.o
/usr/local/lib/fpc/3.2.2/units/x86_64-darwin/pasjpeg/jcomapi.o
/usr/local/lib/fpc/3.2.2/units/x86_64-darwin/pasjpeg/jutils.o
/usr/local/lib/fpc/3.2.2/units/x86_64-darwin/pasjpeg/jmemnobs.o
/usr/local/lib/fpc/3.2.2/units/x86_64-darwin/pasjpeg/jdmaster.o
/usr/local/lib/fpc/3.2.2/units/x86_64-darwin/pasjpeg/jdcolor.o
/usr/local/lib/fpc/3.2.2/units/x86_64-darwin/pasjpeg/jdsample.o
/usr/local/lib/fpc/3.2.2/units/x86_64-darwin/pasjpeg/jdpostct.o
/usr/local/lib/fpc/3.2.2/units/x86_64-darwin/pasjpeg/jddctmgr.o
/usr/local/lib/fpc/3.2.2/units/x86_64-darwin/pasjpeg/jdphuff.o
/usr/local/lib/fpc/3.2.2/units/x86_64-darwin/pasjpeg/jdhuff.o
/usr/local/lib/fpc/3.2.2/units/x86_64-darwin/pasjpeg/jdcoefct.o
/usr/local/lib/fpc/3.2.2/units/x86_64-darwin/pasjpeg/jdmainct.o
/usr/local/lib/fpc/3.2.2/units/x86_64-darwin/pasjpeg/jquant1.o
/usr/local/lib/fpc/3.2.2/units/x86_64-darwin/pasjpeg/jquant2.o
/usr/local/lib/fpc/3.2.2/units/x86_64-darwin/pasjpeg/jdmerge.o
/usr/local/lib/fpc/3.2.2/units/x86_64-darwin/pasjpeg/jdct.o
/usr/local/lib/fpc/3.2.2/units/x86_64-darwin/pasjpeg/jidctfst.o
/usr/local/lib/fpc/3.2.2/units/x86_64-darwin/pasjpeg/jidctint.o
/usr/local/lib/fpc/3.2.2/units/x86_64-darwin/pasjpeg/jidctflt.o
/usr/local/lib/fpc/3.2.2/units/x86_64-darwin/pasjpeg/jidctred.o
/usr/local/lib/fpc/3.2.2/units/x86_64-darwin/pasjpeg/jcapistd.o
/usr/local/lib/fpc/3.2.2/units/x86_64-darwin/pasjpeg/jcapimin.o
/usr/local/lib/fpc/3.2.2/units/x86_64-darwin/pasjpeg/jdatadst.o
/usr/local/lib/fpc/3.2.2/units/x86_64-darwin/pasjpeg/jcparam.o
/usr/local/lib/fpc/3.2.2/units/x86_64-darwin/pasjpeg/jcinit.o
/usr/local/lib/fpc/3.2.2/units/x86_64-darwin/pasjpeg/jcmarker.o
/usr/local/lib/fpc/3.2.2/units/x86_64-darwin/pasjpeg/jcphuff.o
/usr/local/lib/fpc/3.2.2/units/x86_64-darwin/pasjpeg/jchuff.o
/usr/local/lib/fpc/3.2.2/units/x86_64-darwin/pasjpeg/jcmaster.o
/usr/local/lib/fpc/3.2.2/units/x86_64-darwin/pasjpeg/jccolor.o
/usr/local/lib/fpc/3.2.2/units/x86_64-darwin/pasjpeg/jcsample.o
/usr/local/lib/fpc/3.2.2/units/x86_64-darwin/pasjpeg/jcprepct.o
/usr/local/lib/fpc/3.2.2/units/x86_64-darwin/pasjpeg/jcdctmgr.o
/usr/local/lib/fpc/3.2.2/units/x86_64-darwin/pasjpeg/jccoefct.o
/usr/local/lib/fpc/3.2.2/units/x86_64-darwin/pasjpeg/jcmainct.o
/usr/local/lib/fpc/3.2.2/units/x86_64-darwin/pasjpeg/jfdctint.o
/usr/local/lib/fpc/3.2.2/units/x86_64-darwin/pasjpeg/jfdctfst.o
/usr/local/lib/fpc/3.2.2/units/x86_64-darwin/pasjpeg/jfdctflt.o
/usr/local/lib/fpc/3.2.2/units/x86_64-darwin/rtl-objpas/variants.o
/Users/giulianocolla/Applications/lazarus_main/components/lazutils/lib/x86_64-darwin/lazconfigstorage.o
/Users/giulianocolla/Applications/lazarus_main/components/lazutils/lib/x86_64-darwin/dynqueue.o
/usr/local/lib/fpc/3.2.2/units/x86_64-darwin/rtl-objpas/varutils.o
/Users/giulianocolla/Applications/lazarus_main/components/lazutils/lib/x86_64-darwin/avglvltree.o
/Users/giulianocolla/Applications/lazarus_main/components/lazutils/lib/x86_64-darwin/lazdbglog.o
/usr/local/lib/fpc/3.2.2/units/x86_64-darwin/fcl-base/syncobjs.o
/usr/local/lib/fpc/3.2.2/units/x86_64-darwin/rtl/objc.o
/usr/local/lib/fpc/3.2.2/units/x86_64-darwin/rtl/objcbase.o
/usr/local/lib/fpc/3.2.2/units/x86_64-darwin/cocoaint/CocoaAll.o
/Users/giulianocolla/Applications/lazarus_main/components/lazutils/lib/x86_64-darwin/fileutil.o
/Users/giulianocolla/Applications/lazarus_main/components/lazutils/lib/x86_64-darwin/utf8process.o
/Users/giulianocolla/Applications/lazarus_main/components/lazutils/lib/x86_64-darwin/lazsysutils.o
/Users/giulianocolla/Applications/lazarus_main/components/lazutils/lib/x86_64-darwin/maps.o
/usr/local/lib/fpc/3.2.2/units/x86_64-darwin/cocoaint/DefinedClassesFoundation.o
/usr/local/lib/fpc/3.2.2/units/x86_64-darwin/cocoaint/DefinedClassesCoreImage.o
/usr/local/lib/fpc/3.2.2/units/x86_64-darwin/cocoaint/DefinedClassesQuartzCore.o
/usr/local/lib/fpc/3.2.2/units/x86_64-darwin/cocoaint/DefinedClassesCoreData.o
/usr/local/lib/fpc/3.2.2/units/x86_64-darwin/cocoaint/DefinedClassesAppKit.o
/Users/giulianocolla/Applications/lazarus_main/lcl/units/x86_64-darwin/tmschema.o
/usr/local/lib/fpc/3.2.2/units/x86_64-darwin/rtl/fgl.o
/Users/giulianocolla/Applications/lazarus_main/components/lazutils/lib/x86_64-darwin/masks.o
/usr/local/lib/fpc/3.2.2/units/x86_64-darwin/fcl-process/process.o
/usr/local/lib/fpc/3.2.2/units/x86_64-darwin/fcl-process/pipes.o
/usr/local/lib/fpc/3.2.2/units/x86_64-darwin/rtl/termio.o
/Users/giulianocolla/Applications/lazarus_main/lcl/units/x86_64-darwin/cocoa/cocoaint.o
/Users/giulianocolla/Applications/lazarus_main/lcl/units/x86_64-darwin/cocoa/cocoaprivate.o
/Users/giulianocolla/Applications/lazarus_main/lcl/units/x86_64-darwin/cocoa/cocoautils.o
/Users/giulianocolla/Applications/lazarus_main/lcl/units/x86_64-darwin/cocoa/cocoagdiobjects.o
/Users/giulianocolla/Applications/lazarus_main/lcl/units/x86_64-darwin/cocoa/cocoa_extra.o
/Users/giulianocolla/Applications/lazarus_main/lcl/units/x86_64-darwin/cocoa/cocoawsmenus.o
/Users/giulianocolla/Applications/lazarus_main/lcl/units/x86_64-darwin/cocoa/cocoawsforms.o
/Users/giulianocolla/Applications/lazarus_main/lcl/units/x86_64-darwin/cocoa/cocoawindows.o
/Users/giulianocolla/Applications/lazarus_main/lcl/units/x86_64-darwin/cocoa/cocoascrollers.o
/Users/giulianocolla/Applications/lazarus_main/lcl/units/x86_64-darwin/cocoa/cocoawsclipboard.o
/Users/giulianocolla/Applications/lazarus_main/lcl/units/x86_64-darwin/cocoa/cocoatextedits.o
/Users/giulianocolla/Applications/lazarus_main/lcl/units/x86_64-darwin/cocoa/cocoawscommon.o
/Users/giulianocolla/Applications/lazarus_main/lcl/units/x86_64-darwin/lclmessageglue.o
/Users/giulianocolla/Applications/lazarus_main/lcl/units/x86_64-darwin/controls.o
/Users/giulianocolla/Applications/lazarus_main/lcl/units/x86_64-darwin/menus.o
/Users/giulianocolla/Applications/lazarus_main/lcl/units/x86_64-darwin/cocoa/cocoawsfactory.o
/usr/local/lib/fpc/3.2.2/units/x86_64-darwin/univint/CGGeometry.o
/usr/local/lib/fpc/3.2.2/units/x86_64-darwin/univint/CFBase.o
/usr/local/lib/fpc/3.2.2/units/x86_64-darwin/univint/CFDictionary.o
/usr/local/lib/fpc/3.2.2/units/x86_64-darwin/univint/CGBase.o
/Users/giulianocolla/Applications/lazarus_main/lcl/units/x86_64-darwin/lclclasses.o
/Users/giulianocolla/Applications/lazarus_main/lcl/units/x86_64-darwin/wslclclasses.o
/Users/giulianocolla/Applications/lazarus_main/lcl/units/x86_64-darwin/customdrawndrawers.o
/Users/giulianocolla/Applications/lazarus_main/lcl/units/x86_64-darwin/customdrawn_mac.o
/Users/giulianocolla/Applications/lazarus_main/components/lazutils/lib/x86_64-darwin/uitypes.o
/Users/giulianocolla/Applications/lazarus_main/lcl/units/x86_64-darwin/imglist.o
/Users/giulianocolla/Applications/lazarus_main/lcl/units/x86_64-darwin/propertystorage.o
/Users/giulianocolla/Applications/lazarus_main/lcl/units/x86_64-darwin/actnlist.o
/usr/local/lib/fpc/3.2.2/units/x86_64-darwin/rtl-objpas/system.uitypes.o
/usr/local/lib/fpc/3.2.2/units/x86_64-darwin/fcl-image/fpimgcanv.o
/usr/local/lib/fpc/3.2.2/units/x86_64-darwin/fcl-image/fppixlcanv.o
/usr/local/lib/fpc/3.2.2/units/x86_64-darwin/fcl-image/pixtools.o
/usr/local/lib/fpc/3.2.2/units/x86_64-darwin/fcl-image/ellipses.o
/Users/giulianocolla/Applications/lazarus_main/lcl/units/x86_64-darwin/wsimglist.o
/Users/giulianocolla/Applications/lazarus_main/lcl/units/x86_64-darwin/wsproc.o
/Users/giulianocolla/Applications/lazarus_main/lcl/units/x86_64-darwin/wsfactory.o
/usr/local/lib/fpc/3.2.2/units/x86_64-darwin/fcl-base/rttiutils.o
/Users/giulianocolla/Applications/lazarus_main/lcl/units/x86_64-darwin/wsmenus.o
/Users/giulianocolla/Applications/lazarus_main/components/lazutils/lib/x86_64-darwin/lazlogger.o
/Users/giulianocolla/Applications/lazarus_main/components/lazutils/lib/x86_64-darwin/lazstringutils.o
/usr/local/lib/fpc/3.2.2/units/x86_64-darwin/fcl-base/custapp.o
/Users/giulianocolla/Applications/lazarus_main/lcl/units/x86_64-darwin/customtimer.o
/Users/giulianocolla/Applications/lazarus_main/lcl/units/x86_64-darwin/clipbrd.o
/Users/giulianocolla/Applications/lazarus_main/lcl/units/x86_64-darwin/helpintfs.o
/usr/local/lib/fpc/3.2.2/units/x86_64-darwin/fcl-base/singleinstance.o
/usr/local/lib/fpc/3.2.2/units/x86_64-darwin/chm/fasthtmlparser.o
/Users/giulianocolla/Applications/lazarus_main/lcl/units/x86_64-darwin/wscontrols.o
/Users/giulianocolla/Applications/lazarus_main/lcl/units/x86_64-darwin/wsforms.o
/Users/giulianocolla/Applications/lazarus_main/lcl/units/x86_64-darwin/comctrls.o
/Users/giulianocolla/Applications/lazarus_main/lcl/units/x86_64-darwin/extctrls.o
/Users/giulianocolla/Applications/lazarus_main/lcl/units/x86_64-darwin/stdctrls.o
/Users/giulianocolla/Applications/lazarus_main/lcl/units/x86_64-darwin/toolwin.o
/Users/giulianocolla/Applications/lazarus_main/lcl/units/x86_64-darwin/buttons.o
/Users/giulianocolla/Applications/lazarus_main/components/lazutils/lib/x86_64-darwin/textstrings.o
/Users/giulianocolla/Applications/lazarus_main/components/lazutils/lib/x86_64-darwin/extendedstrings.o
/Users/giulianocolla/Applications/lazarus_main/lcl/units/x86_64-darwin/wsstdctrls.o
/Users/giulianocolla/Applications/lazarus_main/lcl/units/x86_64-darwin/popupnotifier.o
/Users/giulianocolla/Applications/lazarus_main/lcl/units/x86_64-darwin/wsextctrls.o
/Users/giulianocolla/Applications/lazarus_main/lcl/units/x86_64-darwin/imagelistcache.o
/Users/giulianocolla/Applications/lazarus_main/lcl/units/x86_64-darwin/wsbuttons.o
/Users/giulianocolla/Applications/lazarus_main/lcl/units/x86_64-darwin/wscomctrls.o
/Users/giulianocolla/Applications/lazarus_main/lcl/units/x86_64-darwin/wstoolwin.o
/Users/giulianocolla/Applications/lazarus_main/lcl/units/x86_64-darwin/customdrawn_common.o
/Users/giulianocolla/Applications/lazarus_main/lcl/units/x86_64-darwin/messages.o
/Users/giulianocolla/Applications/lazarus_main/lcl/units/x86_64-darwin/cocoa/cocoacaret.o
/Users/giulianocolla/Applications/lazarus_main/lcl/units/x86_64-darwin/cocoa/cocoawsstdctrls.o
/Users/giulianocolla/Applications/lazarus_main/lcl/units/x86_64-darwin/cocoa/cocoabuttons.o
/Users/giulianocolla/Applications/lazarus_main/lcl/units/x86_64-darwin/cocoa/cocoatables.o
/Users/giulianocolla/Applications/lazarus_main/lcl/units/x86_64-darwin/cocoa/cocoathemes.o
/Users/giulianocolla/Applications/lazarus_main/lcl/units/x86_64-darwin/spin.o
/Users/giulianocolla/Applications/lazarus_main/lcl/units/x86_64-darwin/pairsplitter.o
/Users/giulianocolla/Applications/lazarus_main/lcl/units/x86_64-darwin/dialogs.o
/Users/giulianocolla/Applications/lazarus_main/lcl/units/x86_64-darwin/checklst.o
/Users/giulianocolla/Applications/lazarus_main/lcl/units/x86_64-darwin/calendar.o
/Users/giulianocolla/Applications/lazarus_main/lcl/units/x86_64-darwin/cocoa/cocoawsbuttons.o
/Users/giulianocolla/Applications/lazarus_main/lcl/units/x86_64-darwin/cocoa/cocoawsextctrls.o
/Users/giulianocolla/Applications/lazarus_main/lcl/units/x86_64-darwin/cocoa/cocoawscomctrls.o
/Users/giulianocolla/Applications/lazarus_main/lcl/units/x86_64-darwin/cocoa/cocoawsdialogs.o
/Users/giulianocolla/Applications/lazarus_main/lcl/units/x86_64-darwin/cocoa/cocoawsspin.o
/Users/giulianocolla/Applications/lazarus_main/lcl/units/x86_64-darwin/cocoa/cocoawschecklst.o
/Users/giulianocolla/Applications/lazarus_main/lcl/units/x86_64-darwin/cocoa/cocoawsdatepicker.o
/Users/giulianocolla/Applications/lazarus_main/lcl/units/x86_64-darwin/wsspin.o
/Users/giulianocolla/Applications/lazarus_main/lcl/units/x86_64-darwin/wspairsplitter.o
/Users/giulianocolla/Applications/lazarus_main/lcl/units/x86_64-darwin/buttonpanel.o
/Users/giulianocolla/Applications/lazarus_main/lcl/units/x86_64-darwin/lcltaskdialog.o
/Users/giulianocolla/Applications/lazarus_main/lcl/units/x86_64-darwin/dialogres.o
/Users/giulianocolla/Applications/lazarus_main/lcl/units/x86_64-darwin/wsdialogs.o
/Users/giulianocolla/Applications/lazarus_main/lcl/units/x86_64-darwin/wschecklst.o
/Users/giulianocolla/Applications/lazarus_main/lcl/units/x86_64-darwin/wscalendar.o
/Users/giulianocolla/Applications/lazarus_main/lcl/units/x86_64-darwin/cocoa/cocoatabcontrols.o
/Users/giulianocolla/Applications/lazarus_main/lcl/units/x86_64-darwin/cocoa/cocoadatepicker.o
